﻿{
  "success": true,
  "message": null,
  "detailErrorMessage": null,
  "total": 36,
  "pageNumber": null,
  "resultsPerPage": null,
  "data": [
    {
      "compoundKey": {
        "id": 138,
        "nodeid": 1
      },
      "appType": "Sip",
      "action": "Drop",
      "ipinterfaceId": 127,
      "localPort": 0,
      "remoteIpAddress": "145.239.141.201",
      "remotePrefix": 32,
      "remotePort": 0,
      "transport": "UDP",
      "ver": 1,
      "ipInterface": {
        "compoundKey": {
          "id": 127,
          "nodeid": 1
        },
        "ipaddress": "185.43.40.183",
        "ipSubnetId": 114,
        "ver": 1,
        "vlanName": "PCS_04_Public_NIC",
        "vlanId": 111,
        "addressType": "IPv4",
        "nodeId": 1,
        "operatorId": null,
        "id": 127
      },
      "nodeId": 1,
      "operatorId": 1,
      "id": 138
    },
    {
      "compoundKey": {
        "id": 137,
        "nodeid": 1
      },
      "appType": "Sip",
      "action": "Drop",
      "ipinterfaceId": 127,
      "localPort": 0,
      "remoteIpAddress": "185.40.4.100",
      "remotePrefix": 32,
      "remotePort": 0,
      "transport": "UDP",
      "ver": 1,
      "ipInterface": {
        "compoundKey": {
          "id": 127,
          "nodeid": 1
        },
        "ipaddress": "185.43.40.183",
        "ipSubnetId": 114,
        "ver": 1,
        "vlanName": "PCS_04_Public_NIC",
        "vlanId": 111,
        "addressType": "IPv4",
        "nodeId": 1,
        "operatorId": null,
        "id": 127
      },
      "nodeId": 1,
      "operatorId": 1,
      "id": 137
    },
    {
      "compoundKey": {
        "id": 136,
        "nodeid": 1
      },
      "appType": "Sip",
      "action": "Drop",
      "ipinterfaceId": 127,
      "localPort": 0,
      "remoteIpAddress": "185.40.4.28",
      "remotePrefix": 32,
      "remotePort": 0,
      "transport": "UDP",
      "ver": 1,
      "ipInterface": {
        "compoundKey": {
          "id": 127,
          "nodeid": 1
        },
        "ipaddress": "185.43.40.183",
        "ipSubnetId": 114,
        "ver": 1,
        "vlanName": "PCS_04_Public_NIC",
        "vlanId": 111,
        "addressType": "IPv4",
        "nodeId": 1,
        "operatorId": null,
        "id": 127
      },
      "nodeId": 1,
      "operatorId": 1,
      "id": 136
    },
    {
      "compoundKey": {
        "id": 135,
        "nodeid": 1
      },
      "appType": "Sip",
      "action": "Drop",
      "ipinterfaceId": 127,
      "localPort": 0,
      "remoteIpAddress": "51.15.223.197",
      "remotePrefix": 32,
      "remotePort": 0,
      "transport": "UDP",
      "ver": 1,
      "ipInterface": {
        "compoundKey": {
          "id": 127,
          "nodeid": 1
        },
        "ipaddress": "185.43.40.183",
        "ipSubnetId": 114,
        "ver": 1,
        "vlanName": "PCS_04_Public_NIC",
        "vlanId": 111,
        "addressType": "IPv4",
        "nodeId": 1,
        "operatorId": null,
        "id": 127
      },
      "nodeId": 1,
      "operatorId": 1,
      "id": 135
    },
    {
      "compoundKey": {
        "id": 134,
        "nodeid": 1
      },
      "appType": "Sip",
      "action": "Drop",
      "ipinterfaceId": 127,
      "localPort": 0,
      "remoteIpAddress": "91.230.121.151",
      "remotePrefix": 32,
      "remotePort": 0,
      "transport": "UDP",
      "ver": 1,
      "ipInterface": {
        "compoundKey": {
          "id": 127,
          "nodeid": 1
        },
        "ipaddress": "185.43.40.183",
        "ipSubnetId": 114,
        "ver": 1,
        "vlanName": "PCS_04_Public_NIC",
        "vlanId": 111,
        "addressType": "IPv4",
        "nodeId": 1,
        "operatorId": null,
        "id": 127
      },
      "nodeId": 1,
      "operatorId": 1,
      "id": 134
    },
    {
      "compoundKey": {
        "id": 133,
        "nodeid": 1
      },
      "appType": "Sip",
      "action": "Drop",
      "ipinterfaceId": 127,
      "localPort": 0,
      "remoteIpAddress": "151.106.0.14",
      "remotePrefix": 32,
      "remotePort": 0,
      "transport": "UDP",
      "ver": 1,
      "ipInterface": {
        "compoundKey": {
          "id": 127,
          "nodeid": 1
        },
        "ipaddress": "185.43.40.183",
        "ipSubnetId": 114,
        "ver": 1,
        "vlanName": "PCS_04_Public_NIC",
        "vlanId": 111,
        "addressType": "IPv4",
        "nodeId": 1,
        "operatorId": null,
        "id": 127
      },
      "nodeId": 1,
      "operatorId": 1,
      "id": 133
    },
    {
      "compoundKey": {
        "id": 132,
        "nodeid": 1
      },
      "appType": "Sip",
      "action": "Drop",
      "ipinterfaceId": 127,
      "localPort": 0,
      "remoteIpAddress": "107.167.21.118",
      "remotePrefix": 32,
      "remotePort": 0,
      "transport": "UDP",
      "ver": 1,
      "ipInterface": {
        "compoundKey": {
          "id": 127,
          "nodeid": 1
        },
        "ipaddress": "185.43.40.183",
        "ipSubnetId": 114,
        "ver": 1,
        "vlanName": "PCS_04_Public_NIC",
        "vlanId": 111,
        "addressType": "IPv4",
        "nodeId": 1,
        "operatorId": null,
        "id": 127
      },
      "nodeId": 1,
      "operatorId": 1,
      "id": 132
    },
    {
      "compoundKey": {
        "id": 131,
        "nodeid": 1
      },
      "appType": "Sip",
      "action": "Drop",
      "ipinterfaceId": 127,
      "localPort": 0,
      "remoteIpAddress": "195.154.156.229",
      "remotePrefix": 32,
      "remotePort": 0,
      "transport": "UDP",
      "ver": 1,
      "ipInterface": {
        "compoundKey": {
          "id": 127,
          "nodeid": 1
        },
        "ipaddress": "185.43.40.183",
        "ipSubnetId": 114,
        "ver": 1,
        "vlanName": "PCS_04_Public_NIC",
        "vlanId": 111,
        "addressType": "IPv4",
        "nodeId": 1,
        "operatorId": null,
        "id": 127
      },
      "nodeId": 1,
      "operatorId": 1,
      "id": 131
    },
    {
      "compoundKey": {
        "id": 130,
        "nodeid": 1
      },
      "appType": "Sip",
      "action": "Drop",
      "ipinterfaceId": 127,
      "localPort": 0,
      "remoteIpAddress": "51.15.144.191",
      "remotePrefix": 32,
      "remotePort": 0,
      "transport": "UDP",
      "ver": 1,
      "ipInterface": {
        "compoundKey": {
          "id": 127,
          "nodeid": 1
        },
        "ipaddress": "185.43.40.183",
        "ipSubnetId": 114,
        "ver": 1,
        "vlanName": "PCS_04_Public_NIC",
        "vlanId": 111,
        "addressType": "IPv4",
        "nodeId": 1,
        "operatorId": null,
        "id": 127
      },
      "nodeId": 1,
      "operatorId": 1,
      "id": 130
    },
    {
      "compoundKey": {
        "id": 129,
        "nodeid": 1
      },
      "appType": "Sip",
      "action": "Drop",
      "ipinterfaceId": 127,
      "localPort": 0,
      "remoteIpAddress": "185.107.83.35",
      "remotePrefix": 32,
      "remotePort": 0,
      "transport": "UDP",
      "ver": 1,
      "ipInterface": {
        "compoundKey": {
          "id": 127,
          "nodeid": 1
        },
        "ipaddress": "185.43.40.183",
        "ipSubnetId": 114,
        "ver": 1,
        "vlanName": "PCS_04_Public_NIC",
        "vlanId": 111,
        "addressType": "IPv4",
        "nodeId": 1,
        "operatorId": null,
        "id": 127
      },
      "nodeId": 1,
      "operatorId": 1,
      "id": 129
    },
    {
      "compoundKey": {
        "id": 128,
        "nodeid": 1
      },
      "appType": "Sip",
      "action": "Drop",
      "ipinterfaceId": 127,
      "localPort": 0,
      "remoteIpAddress": "54.39.56.48",
      "remotePrefix": 32,
      "remotePort": 0,
      "transport": "UDP",
      "ver": 1,
      "ipInterface": {
        "compoundKey": {
          "id": 127,
          "nodeid": 1
        },
        "ipaddress": "185.43.40.183",
        "ipSubnetId": 114,
        "ver": 1,
        "vlanName": "PCS_04_Public_NIC",
        "vlanId": 111,
        "addressType": "IPv4",
        "nodeId": 1,
        "operatorId": null,
        "id": 127
      },
      "nodeId": 1,
      "operatorId": 1,
      "id": 128
    },
    {
      "compoundKey": {
        "id": 127,
        "nodeid": 1
      },
      "appType": "Sip",
      "action": "Drop",
      "ipinterfaceId": 127,
      "localPort": 0,
      "remoteIpAddress": "54.39.56.48",
      "remotePrefix": 32,
      "remotePort": 0,
      "transport": "UDP",
      "ver": 1,
      "ipInterface": {
        "compoundKey": {
          "id": 127,
          "nodeid": 1
        },
        "ipaddress": "185.43.40.183",
        "ipSubnetId": 114,
        "ver": 1,
        "vlanName": "PCS_04_Public_NIC",
        "vlanId": 111,
        "addressType": "IPv4",
        "nodeId": 1,
        "operatorId": null,
        "id": 127
      },
      "nodeId": 1,
      "operatorId": 1,
      "id": 127
    },
    {
      "compoundKey": {
        "id": 126,
        "nodeid": 1
      },
      "appType": "Sip",
      "action": "Drop",
      "ipinterfaceId": 127,
      "localPort": 0,
      "remoteIpAddress": "144.217.245.178",
      "remotePrefix": 32,
      "remotePort": 0,
      "transport": "UDP",
      "ver": 1,
      "ipInterface": {
        "compoundKey": {
          "id": 127,
          "nodeid": 1
        },
        "ipaddress": "185.43.40.183",
        "ipSubnetId": 114,
        "ver": 1,
        "vlanName": "PCS_04_Public_NIC",
        "vlanId": 111,
        "addressType": "IPv4",
        "nodeId": 1,
        "operatorId": null,
        "id": 127
      },
      "nodeId": 1,
      "operatorId": 1,
      "id": 126
    },
    {
      "compoundKey": {
        "id": 124,
        "nodeid": 1
      },
      "appType": "Sip",
      "action": "Drop",
      "ipinterfaceId": 127,
      "localPort": 0,
      "remoteIpAddress": "145.239.244.9",
      "remotePrefix": 32,
      "remotePort": 0,
      "transport": "UDP",
      "ver": 1,
      "ipInterface": {
        "compoundKey": {
          "id": 127,
          "nodeid": 1
        },
        "ipaddress": "185.43.40.183",
        "ipSubnetId": 114,
        "ver": 1,
        "vlanName": "PCS_04_Public_NIC",
        "vlanId": 111,
        "addressType": "IPv4",
        "nodeId": 1,
        "operatorId": null,
        "id": 127
      },
      "nodeId": 1,
      "operatorId": 1,
      "id": 124
    },
    {
      "compoundKey": {
        "id": 123,
        "nodeid": 1
      },
      "appType": "Sip",
      "action": "Drop",
      "ipinterfaceId": 127,
      "localPort": 0,
      "remoteIpAddress": "54.36.112.150",
      "remotePrefix": 32,
      "remotePort": 0,
      "transport": "UDP",
      "ver": 1,
      "ipInterface": {
        "compoundKey": {
          "id": 127,
          "nodeid": 1
        },
        "ipaddress": "185.43.40.183",
        "ipSubnetId": 114,
        "ver": 1,
        "vlanName": "PCS_04_Public_NIC",
        "vlanId": 111,
        "addressType": "IPv4",
        "nodeId": 1,
        "operatorId": null,
        "id": 127
      },
      "nodeId": 1,
      "operatorId": 1,
      "id": 123
    },
    {
      "compoundKey": {
        "id": 122,
        "nodeid": 1
      },
      "appType": "Sip",
      "action": "Drop",
      "ipinterfaceId": 127,
      "localPort": 0,
      "remoteIpAddress": "54.38.70.20",
      "remotePrefix": 32,
      "remotePort": 0,
      "transport": "UDP",
      "ver": 1,
      "ipInterface": {
        "compoundKey": {
          "id": 127,
          "nodeid": 1
        },
        "ipaddress": "185.43.40.183",
        "ipSubnetId": 114,
        "ver": 1,
        "vlanName": "PCS_04_Public_NIC",
        "vlanId": 111,
        "addressType": "IPv4",
        "nodeId": 1,
        "operatorId": null,
        "id": 127
      },
      "nodeId": 1,
      "operatorId": 1,
      "id": 122
    },
    {
      "compoundKey": {
        "id": 121,
        "nodeid": 1
      },
      "appType": "Sip",
      "action": "Drop",
      "ipinterfaceId": 127,
      "localPort": 0,
      "remoteIpAddress": "46.166.139.44",
      "remotePrefix": 32,
      "remotePort": 0,
      "transport": "UDP",
      "ver": 1,
      "ipInterface": {
        "compoundKey": {
          "id": 127,
          "nodeid": 1
        },
        "ipaddress": "185.43.40.183",
        "ipSubnetId": 114,
        "ver": 1,
        "vlanName": "PCS_04_Public_NIC",
        "vlanId": 111,
        "addressType": "IPv4",
        "nodeId": 1,
        "operatorId": null,
        "id": 127
      },
      "nodeId": 1,
      "operatorId": 1,
      "id": 121
    },
    {
      "compoundKey": {
        "id": 120,
        "nodeid": 1
      },
      "appType": "Sip",
      "action": "Drop",
      "ipinterfaceId": 127,
      "localPort": 0,
      "remoteIpAddress": "54.38.43.73",
      "remotePrefix": 32,
      "remotePort": 0,
      "transport": "UDP",
      "ver": 1,
      "ipInterface": {
        "compoundKey": {
          "id": 127,
          "nodeid": 1
        },
        "ipaddress": "185.43.40.183",
        "ipSubnetId": 114,
        "ver": 1,
        "vlanName": "PCS_04_Public_NIC",
        "vlanId": 111,
        "addressType": "IPv4",
        "nodeId": 1,
        "operatorId": null,
        "id": 127
      },
      "nodeId": 1,
      "operatorId": 1,
      "id": 120
    },
    {
      "compoundKey": {
        "id": 119,
        "nodeid": 1
      },
      "appType": "Sip",
      "action": "Drop",
      "ipinterfaceId": 127,
      "localPort": 0,
      "remoteIpAddress": "5.189.186.242",
      "remotePrefix": 32,
      "remotePort": 0,
      "transport": "UDP",
      "ver": 2,
      "ipInterface": {
        "compoundKey": {
          "id": 127,
          "nodeid": 1
        },
        "ipaddress": "185.43.40.183",
        "ipSubnetId": 114,
        "ver": 1,
        "vlanName": "PCS_04_Public_NIC",
        "vlanId": 111,
        "addressType": "IPv4",
        "nodeId": 1,
        "operatorId": null,
        "id": 127
      },
      "nodeId": 1,
      "operatorId": 1,
      "id": 119
    },
    {
      "compoundKey": {
        "id": 118,
        "nodeid": 1
      },
      "appType": "Sip",
      "action": "Drop",
      "ipinterfaceId": 127,
      "localPort": 0,
      "remoteIpAddress": "185.40.4.46",
      "remotePrefix": 32,
      "remotePort": 0,
      "transport": "UDP",
      "ver": 1,
      "ipInterface": {
        "compoundKey": {
          "id": 127,
          "nodeid": 1
        },
        "ipaddress": "185.43.40.183",
        "ipSubnetId": 114,
        "ver": 1,
        "vlanName": "PCS_04_Public_NIC",
        "vlanId": 111,
        "addressType": "IPv4",
        "nodeId": 1,
        "operatorId": null,
        "id": 127
      },
      "nodeId": 1,
      "operatorId": 1,
      "id": 118
    },
    {
      "compoundKey": {
        "id": 117,
        "nodeid": 1
      },
      "appType": "Sip",
      "action": "Drop",
      "ipinterfaceId": 127,
      "localPort": 0,
      "remoteIpAddress": "62.210.143.116",
      "remotePrefix": 32,
      "remotePort": 0,
      "transport": "UDP",
      "ver": 1,
      "ipInterface": {
        "compoundKey": {
          "id": 127,
          "nodeid": 1
        },
        "ipaddress": "185.43.40.183",
        "ipSubnetId": 114,
        "ver": 1,
        "vlanName": "PCS_04_Public_NIC",
        "vlanId": 111,
        "addressType": "IPv4",
        "nodeId": 1,
        "operatorId": null,
        "id": 127
      },
      "nodeId": 1,
      "operatorId": 1,
      "id": 117
    },
    {
      "compoundKey": {
        "id": 116,
        "nodeid": 1
      },
      "appType": "Sip",
      "action": "Drop",
      "ipinterfaceId": 127,
      "localPort": 0,
      "remoteIpAddress": "185.216.140.39",
      "remotePrefix": 32,
      "remotePort": 0,
      "transport": "UDP",
      "ver": 1,
      "ipInterface": {
        "compoundKey": {
          "id": 127,
          "nodeid": 1
        },
        "ipaddress": "185.43.40.183",
        "ipSubnetId": 114,
        "ver": 1,
        "vlanName": "PCS_04_Public_NIC",
        "vlanId": 111,
        "addressType": "IPv4",
        "nodeId": 1,
        "operatorId": null,
        "id": 127
      },
      "nodeId": 1,
      "operatorId": 1,
      "id": 116
    },
    {
      "compoundKey": {
        "id": 115,
        "nodeid": 1
      },
      "appType": "Sip",
      "action": "Drop",
      "ipinterfaceId": 127,
      "localPort": 0,
      "remoteIpAddress": "185.40.4.84",
      "remotePrefix": 32,
      "remotePort": 0,
      "transport": "UDP",
      "ver": 3,
      "ipInterface": {
        "compoundKey": {
          "id": 127,
          "nodeid": 1
        },
        "ipaddress": "185.43.40.183",
        "ipSubnetId": 114,
        "ver": 1,
        "vlanName": "PCS_04_Public_NIC",
        "vlanId": 111,
        "addressType": "IPv4",
        "nodeId": 1,
        "operatorId": null,
        "id": 127
      },
      "nodeId": 1,
      "operatorId": 1,
      "id": 115
    },
    {
      "compoundKey": {
        "id": 114,
        "nodeid": 1
      },
      "appType": "Sip",
      "action": "Drop",
      "ipinterfaceId": 127,
      "localPort": 0,
      "remoteIpAddress": "185.40.4.48",
      "remotePrefix": 32,
      "remotePort": 0,
      "transport": "UDP",
      "ver": 1,
      "ipInterface": {
        "compoundKey": {
          "id": 127,
          "nodeid": 1
        },
        "ipaddress": "185.43.40.183",
        "ipSubnetId": 114,
        "ver": 1,
        "vlanName": "PCS_04_Public_NIC",
        "vlanId": 111,
        "addressType": "IPv4",
        "nodeId": 1,
        "operatorId": null,
        "id": 127
      },
      "nodeId": 1,
      "operatorId": 1,
      "id": 114
    },
    {
      "compoundKey": {
        "id": 113,
        "nodeid": 1
      },
      "appType": "Sip",
      "action": "Drop",
      "ipinterfaceId": 127,
      "localPort": 0,
      "remoteIpAddress": "207.189.27.11",
      "remotePrefix": 32,
      "remotePort": 0,
      "transport": "UDP",
      "ver": 1,
      "ipInterface": {
        "compoundKey": {
          "id": 127,
          "nodeid": 1
        },
        "ipaddress": "185.43.40.183",
        "ipSubnetId": 114,
        "ver": 1,
        "vlanName": "PCS_04_Public_NIC",
        "vlanId": 111,
        "addressType": "IPv4",
        "nodeId": 1,
        "operatorId": null,
        "id": 127
      },
      "nodeId": 1,
      "operatorId": 1,
      "id": 113
    },
    {
      "compoundKey": {
        "id": 112,
        "nodeid": 1
      },
      "appType": "Sip",
      "action": "Drop",
      "ipinterfaceId": 127,
      "localPort": 0,
      "remoteIpAddress": "192.99.38.51",
      "remotePrefix": 32,
      "remotePort": 0,
      "transport": "UDP",
      "ver": 1,
      "ipInterface": {
        "compoundKey": {
          "id": 127,
          "nodeid": 1
        },
        "ipaddress": "185.43.40.183",
        "ipSubnetId": 114,
        "ver": 1,
        "vlanName": "PCS_04_Public_NIC",
        "vlanId": 111,
        "addressType": "IPv4",
        "nodeId": 1,
        "operatorId": null,
        "id": 127
      },
      "nodeId": 1,
      "operatorId": 1,
      "id": 112
    },
    {
      "compoundKey": {
        "id": 111,
        "nodeid": 1
      },
      "appType": "Sip",
      "action": "Drop",
      "ipinterfaceId": 127,
      "localPort": 0,
      "remoteIpAddress": "62.210.157.169",
      "remotePrefix": 32,
      "remotePort": 0,
      "transport": "UDP",
      "ver": 1,
      "ipInterface": {
        "compoundKey": {
          "id": 127,
          "nodeid": 1
        },
        "ipaddress": "185.43.40.183",
        "ipSubnetId": 114,
        "ver": 1,
        "vlanName": "PCS_04_Public_NIC",
        "vlanId": 111,
        "addressType": "IPv4",
        "nodeId": 1,
        "operatorId": null,
        "id": 127
      },
      "nodeId": 1,
      "operatorId": 1,
      "id": 111
    },
    {
      "compoundKey": {
        "id": 110,
        "nodeid": 1
      },
      "appType": "Sip",
      "action": "Drop",
      "ipinterfaceId": 127,
      "localPort": 0,
      "remoteIpAddress": "54.36.54.80",
      "remotePrefix": 32,
      "remotePort": 0,
      "transport": "UDP",
      "ver": 1,
      "ipInterface": {
        "compoundKey": {
          "id": 127,
          "nodeid": 1
        },
        "ipaddress": "185.43.40.183",
        "ipSubnetId": 114,
        "ver": 1,
        "vlanName": "PCS_04_Public_NIC",
        "vlanId": 111,
        "addressType": "IPv4",
        "nodeId": 1,
        "operatorId": null,
        "id": 127
      },
      "nodeId": 1,
      "operatorId": 1,
      "id": 110
    },
    {
      "compoundKey": {
        "id": 109,
        "nodeid": 1
      },
      "appType": "Sip",
      "action": "Drop",
      "ipinterfaceId": 127,
      "localPort": 0,
      "remoteIpAddress": "185.40.4.49",
      "remotePrefix": 32,
      "remotePort": 0,
      "transport": "UDP",
      "ver": 1,
      "ipInterface": {
        "compoundKey": {
          "id": 127,
          "nodeid": 1
        },
        "ipaddress": "185.43.40.183",
        "ipSubnetId": 114,
        "ver": 1,
        "vlanName": "PCS_04_Public_NIC",
        "vlanId": 111,
        "addressType": "IPv4",
        "nodeId": 1,
        "operatorId": null,
        "id": 127
      },
      "nodeId": 1,
      "operatorId": 1,
      "id": 109
    },
    {
      "compoundKey": {
        "id": 108,
        "nodeid": 1
      },
      "appType": "Sip",
      "action": "Drop",
      "ipinterfaceId": 127,
      "localPort": 0,
      "remoteIpAddress": "46.166.151.38",
      "remotePrefix": 32,
      "remotePort": 0,
      "transport": "UDP",
      "ver": 1,
      "ipInterface": {
        "compoundKey": {
          "id": 127,
          "nodeid": 1
        },
        "ipaddress": "185.43.40.183",
        "ipSubnetId": 114,
        "ver": 1,
        "vlanName": "PCS_04_Public_NIC",
        "vlanId": 111,
        "addressType": "IPv4",
        "nodeId": 1,
        "operatorId": null,
        "id": 127
      },
      "nodeId": 1,
      "operatorId": 1,
      "id": 108
    },
    {
      "compoundKey": {
        "id": 107,
        "nodeid": 1
      },
      "appType": "Sip",
      "action": "Drop",
      "ipinterfaceId": 127,
      "localPort": 0,
      "remoteIpAddress": "185.212.202.98",
      "remotePrefix": 32,
      "remotePort": 0,
      "transport": "UDP",
      "ver": 1,
      "ipInterface": {
        "compoundKey": {
          "id": 127,
          "nodeid": 1
        },
        "ipaddress": "185.43.40.183",
        "ipSubnetId": 114,
        "ver": 1,
        "vlanName": "PCS_04_Public_NIC",
        "vlanId": 111,
        "addressType": "IPv4",
        "nodeId": 1,
        "operatorId": null,
        "id": 127
      },
      "nodeId": 1,
      "operatorId": 1,
      "id": 107
    },
    {
      "compoundKey": {
        "id": 106,
        "nodeid": 1
      },
      "appType": "Sip",
      "action": "Drop",
      "ipinterfaceId": 127,
      "localPort": 0,
      "remoteIpAddress": "46.166.142.185",
      "remotePrefix": 32,
      "remotePort": 0,
      "transport": "UDP",
      "ver": 1,
      "ipInterface": {
        "compoundKey": {
          "id": 127,
          "nodeid": 1
        },
        "ipaddress": "185.43.40.183",
        "ipSubnetId": 114,
        "ver": 1,
        "vlanName": "PCS_04_Public_NIC",
        "vlanId": 111,
        "addressType": "IPv4",
        "nodeId": 1,
        "operatorId": null,
        "id": 127
      },
      "nodeId": 1,
      "operatorId": 1,
      "id": 106
    },
    {
      "compoundKey": {
        "id": 105,
        "nodeid": 1
      },
      "appType": "Sip",
      "action": "Drop",
      "ipinterfaceId": 127,
      "localPort": 0,
      "remoteIpAddress": "192.99.100.86",
      "remotePrefix": 32,
      "remotePort": 0,
      "transport": "UDP",
      "ver": 1,
      "ipInterface": {
        "compoundKey": {
          "id": 127,
          "nodeid": 1
        },
        "ipaddress": "185.43.40.183",
        "ipSubnetId": 114,
        "ver": 1,
        "vlanName": "PCS_04_Public_NIC",
        "vlanId": 111,
        "addressType": "IPv4",
        "nodeId": 1,
        "operatorId": null,
        "id": 127
      },
      "nodeId": 1,
      "operatorId": 1,
      "id": 105
    },
    {
      "compoundKey": {
        "id": 104,
        "nodeid": 1
      },
      "appType": "Sip",
      "action": "Drop",
      "ipinterfaceId": 127,
      "localPort": 0,
      "remoteIpAddress": "185.107.94.10",
      "remotePrefix": 32,
      "remotePort": 0,
      "transport": "UDP",
      "ver": 1,
      "ipInterface": {
        "compoundKey": {
          "id": 127,
          "nodeid": 1
        },
        "ipaddress": "185.43.40.183",
        "ipSubnetId": 114,
        "ver": 1,
        "vlanName": "PCS_04_Public_NIC",
        "vlanId": 111,
        "addressType": "IPv4",
        "nodeId": 1,
        "operatorId": null,
        "id": 127
      },
      "nodeId": 1,
      "operatorId": 1,
      "id": 104
    },
    {
      "compoundKey": {
        "id": 103,
        "nodeid": 1
      },
      "appType": "Sip",
      "action": "Drop",
      "ipinterfaceId": 127,
      "localPort": 5060,
      "remoteIpAddress": "54.36.113.7",
      "remotePrefix": 24,
      "remotePort": 0,
      "transport": "UDP",
      "ver": 1,
      "ipInterface": {
        "compoundKey": {
          "id": 127,
          "nodeid": 1
        },
        "ipaddress": "185.43.40.183",
        "ipSubnetId": 114,
        "ver": 1,
        "vlanName": "PCS_04_Public_NIC",
        "vlanId": 111,
        "addressType": "IPv4",
        "nodeId": 1,
        "operatorId": null,
        "id": 127
      },
      "nodeId": 1,
      "operatorId": 1,
      "id": 103
    },
    {
      "compoundKey": {
        "id": 102,
        "nodeid": 1
      },
      "appType": "Sip",
      "action": "Drop",
      "ipinterfaceId": 127,
      "localPort": 5060,
      "remoteIpAddress": "62.210.10.28",
      "remotePrefix": 24,
      "remotePort": 0,
      "transport": "UDP",
      "ver": 1,
      "ipInterface": {
        "compoundKey": {
          "id": 127,
          "nodeid": 1
        },
        "ipaddress": "185.43.40.183",
        "ipSubnetId": 114,
        "ver": 1,
        "vlanName": "PCS_04_Public_NIC",
        "vlanId": 111,
        "addressType": "IPv4",
        "nodeId": 1,
        "operatorId": null,
        "id": 127
      },
      "nodeId": 1,
      "operatorId": 1,
      "id": 102
    }
  ],
  "objId": null
}
